/* XPM */
static const char *cursor_crosshair[] = {
/* columns rows colors chars-per-pixel */
"32 32 3 1",
"  c white",
"x c black",
". c None",
/* pixels */
"................................",
"................................",
"................................",
"................................",
"................................",
"................................",
"................................",
"................................",
"................................",
"..............xc.cx.............",
"..............xc.cx.............",
"..............xc.cx.............",
"..............xc.cx.............",
"..........xxxxxc.cxxxxx.........",
"..........cccccc.cccccc.........",
"................................",
"..........cccccc.cccccc.........",
"..........xxxxxc.cxxxxx.........",
"..............xc.cx.............",
"..............xc.cx.............",
"..............xc.cx.............",
"..............xc.cx.............",
"................................",
"................................",
"................................",
"................................",
"................................",
"................................",
"................................",
"................................",
"................................",
"................................"
};
