/* XPM */
static const char *filesave[] = {
/* columns rows colors chars-per-pixel */
"16 16 3 1",
"  c #000000",
". c #808000",
"+ c none",
"++++++++++++++++",
"+              +",
"+ . ++++++++ + +",
"+ . ++++++++   +",
"+ . ++++++++ . +",
"+ . ++++++++ . +",
"+ . ++++++++ . +",
"+ . ++++++++ . +",
"+ ..        .. +",
"+ ............ +",
"+ ..         . +",
"+ ..      ++ . +",
"+ ..      ++ . +",
"+ ..      ++ . +",
"++             +",
"++++++++++++++++"
};
