<svg xmlns="http://www.w3.org/2000/svg">
 <g>
  <title>Layer 1</title>
  <line y2="9" x2="9" y1="5" x1="5" stroke-width="1.5" stroke="#000" />
  <line y2="5" x2="5" y1="9" x1="1" stroke-width="1.5" stroke="#000" />
 </g>
</svg>
