/* XPM */
static char *rotate_icon[] = {
/* columns rows colors chars-per-pixel */
"16 16 2 1",
"x c black",
". c None",
/* pixels */
"................",
".......x........",
"......xx........",
".....xxxxx......",
"......xx..x.....",
".......x...x....",
"............x...",
"............x...",
"..x.........x...",
"..x.........x...",
"..x.........x...",
"...x.......x....",
"....x.....x.....",
".....xxxxx......",
"................",
"................"
};
